{
	"artifacts" : 
	[
		{
			"path" : "constractor_and_decons"
		}
	],
	"backtrace" : 1,
	"backtraceGraph" : 
	{
		"commands" : 
		[
			"add_executable",
			"target_link_libraries"
		],
		"files" : 
		[
			"CMakeLists.txt"
		],
		"nodes" : 
		[
			{
				"file" : 0
			},
			{
				"command" : 0,
				"file" : 0,
				"line" : 17,
				"parent" : 0
			},
			{
				"command" : 1,
				"file" : 0,
				"line" : 22,
				"parent" : 0
			}
		]
	},
	"compileGroups" : 
	[
		{
			"compileCommandFragments" : 
			[
				{
					"fragment" : "-g"
				},
				{
					"backtrace" : 2,
					"fragment" : "-fPIC"
				},
				{
					"backtrace" : 2,
					"fragment" : "-pthread"
				},
				{
					"fragment" : "-std=gnu++17"
				}
			],
			"defines" : 
			[
				{
					"backtrace" : 2,
					"define" : "QT_CORE_LIB"
				}
			],
			"includes" : 
			[
				{
					"path" : "/home/plas9a/code-git/qt/build-constractor_and_decons-Desktop_Qt_6_0_3_GCC_64bit-Debug"
				},
				{
					"path" : "/home/plas9a/code-git/qt/constractor_and_decons"
				},
				{
					"backtrace" : 0,
					"path" : "/home/plas9a/code-git/qt/build-constractor_and_decons-Desktop_Qt_6_0_3_GCC_64bit-Debug/constractor_and_decons_autogen/include"
				},
				{
					"backtrace" : 2,
					"isSystem" : true,
					"path" : "/home/plas9a/Qt/6.0.3/gcc_64/include/QtCore"
				},
				{
					"backtrace" : 2,
					"isSystem" : true,
					"path" : "/home/plas9a/Qt/6.0.3/gcc_64/include"
				},
				{
					"backtrace" : 2,
					"isSystem" : true,
					"path" : "/home/plas9a/Qt/6.0.3/gcc_64/mkspecs/linux-g++"
				}
			],
			"language" : "CXX",
			"languageStandard" : 
			{
				"backtraces" : 
				[
					2
				],
				"standard" : "17"
			},
			"sourceIndexes" : 
			[
				0,
				1,
				2
			]
		}
	],
	"dependencies" : 
	[
		{
			"id" : "constractor_and_decons_autogen_timestamp_deps::@6890427a1f51a3e7e1df"
		},
		{
			"backtrace" : 0,
			"id" : "constractor_and_decons_autogen::@6890427a1f51a3e7e1df"
		}
	],
	"id" : "constractor_and_decons::@6890427a1f51a3e7e1df",
	"link" : 
	{
		"commandFragments" : 
		[
			{
				"fragment" : "-g",
				"role" : "flags"
			},
			{
				"fragment" : "",
				"role" : "flags"
			},
			{
				"fragment" : "-Wl,-rpath,/home/plas9a/Qt/6.0.3/gcc_64/lib",
				"role" : "libraries"
			},
			{
				"backtrace" : 2,
				"fragment" : "/home/plas9a/Qt/6.0.3/gcc_64/lib/libQt6Core.so.6.0.3",
				"role" : "libraries"
			},
			{
				"fragment" : "-pthread",
				"role" : "libraries"
			}
		],
		"language" : "CXX"
	},
	"name" : "constractor_and_decons",
	"nameOnDisk" : "constractor_and_decons",
	"paths" : 
	{
		"build" : ".",
		"source" : "."
	},
	"sourceGroups" : 
	[
		{
			"name" : "Source Files",
			"sourceIndexes" : 
			[
				0,
				1,
				2
			]
		},
		{
			"name" : "Header Files",
			"sourceIndexes" : 
			[
				3
			]
		},
		{
			"name" : "",
			"sourceIndexes" : 
			[
				4
			]
		},
		{
			"name" : "CMake Rules",
			"sourceIndexes" : 
			[
				5
			]
		}
	],
	"sources" : 
	[
		{
			"backtrace" : 0,
			"compileGroupIndex" : 0,
			"isGenerated" : true,
			"path" : "/home/plas9a/code-git/qt/build-constractor_and_decons-Desktop_Qt_6_0_3_GCC_64bit-Debug/constractor_and_decons_autogen/mocs_compilation.cpp",
			"sourceGroupIndex" : 0
		},
		{
			"backtrace" : 1,
			"compileGroupIndex" : 0,
			"path" : "main.cpp",
			"sourceGroupIndex" : 0
		},
		{
			"backtrace" : 1,
			"compileGroupIndex" : 0,
			"path" : "laptop.cpp",
			"sourceGroupIndex" : 0
		},
		{
			"backtrace" : 1,
			"path" : "laptop.h",
			"sourceGroupIndex" : 1
		},
		{
			"backtrace" : 0,
			"isGenerated" : true,
			"path" : "/home/plas9a/code-git/qt/build-constractor_and_decons-Desktop_Qt_6_0_3_GCC_64bit-Debug/constractor_and_decons_autogen/timestamp",
			"sourceGroupIndex" : 2
		},
		{
			"backtrace" : 0,
			"isGenerated" : true,
			"path" : "/home/plas9a/code-git/qt/build-constractor_and_decons-Desktop_Qt_6_0_3_GCC_64bit-Debug/constractor_and_decons_autogen/timestamp.rule",
			"sourceGroupIndex" : 3
		}
	],
	"type" : "EXECUTABLE"
}
