{
	"cmake" : 
	{
		"generator" : 
		{
			"multiConfig" : false,
			"name" : "Ninja"
		},
		"paths" : 
		{
			"cmake" : "/home/plas9a/Qt/Tools/CMake/bin/cmake",
			"cpack" : "/home/plas9a/Qt/Tools/CMake/bin/cpack",
			"ctest" : "/home/plas9a/Qt/Tools/CMake/bin/ctest",
			"root" : "/home/plas9a/Qt/Tools/CMake/share/cmake-3.19"
		},
		"version" : 
		{
			"isDirty" : false,
			"major" : 3,
			"minor" : 19,
			"patch" : 2,
			"string" : "3.19.2",
			"suffix" : ""
		}
	},
	"objects" : 
	[
		{
			"jsonFile" : "codemodel-v2-154246f8afb3ad7caff1.json",
			"kind" : "codemodel",
			"version" : 
			{
				"major" : 2,
				"minor" : 2
			}
		},
		{
			"jsonFile" : "cache-v2-b9626dc6f06246a63fda.json",
			"kind" : "cache",
			"version" : 
			{
				"major" : 2,
				"minor" : 0
			}
		},
		{
			"jsonFile" : "cmakeFiles-v1-1ff253116ef14824f5fc.json",
			"kind" : "cmakeFiles",
			"version" : 
			{
				"major" : 1,
				"minor" : 0
			}
		}
	],
	"reply" : 
	{
		"cache-v2" : 
		{
			"jsonFile" : "cache-v2-b9626dc6f06246a63fda.json",
			"kind" : "cache",
			"version" : 
			{
				"major" : 2,
				"minor" : 0
			}
		},
		"cmakeFiles-v1" : 
		{
			"jsonFile" : "cmakeFiles-v1-1ff253116ef14824f5fc.json",
			"kind" : "cmakeFiles",
			"version" : 
			{
				"major" : 1,
				"minor" : 0
			}
		},
		"codemodel-v2" : 
		{
			"jsonFile" : "codemodel-v2-154246f8afb3ad7caff1.json",
			"kind" : "codemodel",
			"version" : 
			{
				"major" : 2,
				"minor" : 2
			}
		}
	}
}
